D:\ROSA DE LA CRUZ\Practitioner2021\BACK01_API_Rest\src\main\java\com\techu\entregables\Entregable1Application.java
D:\ROSA DE LA CRUZ\Practitioner2021\BACK01_API_Rest\src\main\java\com\techu\entregables\modelo\ModeloUsuario.java
D:\ROSA DE LA CRUZ\Practitioner2021\BACK01_API_Rest\src\main\java\com\techu\entregables\controlador\ControladorProductos.java
D:\ROSA DE LA CRUZ\Practitioner2021\BACK01_API_Rest\src\main\java\com\techu\entregables\controlador\ControladorUsuarioProducto.java
D:\ROSA DE LA CRUZ\Practitioner2021\BACK01_API_Rest\src\main\java\com\techu\entregables\servicio\ServicioDatos.java
D:\ROSA DE LA CRUZ\Practitioner2021\BACK01_API_Rest\src\main\java\com\techu\entregables\modelo\ModeloProducto.java
